{
  "count": 334,
  "next": "http://wuhe.21dodo.com/video/upload/?limit=10&offset=10&username=even&userpassword=123",
  "previous": null,
  "results": [
    {
      "id": 693,
      "file_1": "https://course-wuhewenhua.oss-cn-beijing.aliyuncs.com/prod%2Fvideo%2Fanalysis%2F405%2F2021-01-26_20%3A43%3A40_1_mmexport1611664492852.mp4?OSSAccessKeyId=LTAI4GKojFKZwGZNmTaBu1c2&Expires=1611671028&Signature=%2FoDfMZKlpr64E8qK4i12pPszLcw%3D",
      "file_2": "https://course-wuhewenhua.oss-cn-beijing.aliyuncs.com/prod%2Fvideo%2Fanalysis%2F405%2F2021-01-26_20%3A43%3A40_2_mmexport1611664502040.mp4?OSSAccessKeyId=LTAI4GKojFKZwGZNmTaBu1c2&Expires=1611671028&Signature=vF7EMQhVsXSYuKgg7FCj9GLN8NE%3D",
      "file_3": null,
      "state": 1,
      "add_time": "2021-01-26T20:43:41.727366",
      "now_time": "2021-01-26T20:44:05.272503",
      "child": 405
    },
    {
      "id": 692,
      "file_1": "https://course-wuhewenhua.oss-cn-beijing.aliyuncs.com/prod%2Fvideo%2Fanalysis%2F404%2F2021-01-26_19%3A29%3A20_1_1611660507689.mp4?OSSAccessKeyId=LTAI4GKojFKZwGZNmTaBu1c2&Expires=1611671028&Signature=Pam6whx%2FSYIkNi2a%2Bc7KQxLpBP4%3D",
      "file_2": "https://course-wuhewenhua.oss-cn-beijing.aliyuncs.com/prod%2Fvideo%2Fanalysis%2F404%2F2021-01-26_19%3A29%3A20_2_1611660514567.mp4?OSSAccessKeyId=LTAI4GKojFKZwGZNmTaBu1c2&Expires=1611671028&Signature=AlbV9Bi7aZ1cOyg%2Bz57jcWF7KJY%3D",
      "file_3": null,
      "state": 1,
      "add_time": "2021-01-26T19:29:23.887201",
      "now_time": "2021-01-26T19:29:33.161308",
      "child": 404
    },
    {
      "id": 691,
      "file_1": "https://course-wuhewenhua.oss-cn-beijing.aliyuncs.com/prod%2Fvideo%2Fanalysis%2F403%2F2021-01-26_18%3A14%3A18_1_mmexport1611655908055.mp4?OSSAccessKeyId=LTAI4GKojFKZwGZNmTaBu1c2&Expires=1611671028&Signature=amC7w8q35O74LfhsJhB16E40Up8%3D",
      "file_2": "https://course-wuhewenhua.oss-cn-beijing.aliyuncs.com/prod%2Fvideo%2Fanalysis%2F403%2F2021-01-26_18%3A14%3A18_2_mmexport1611655913215.mp4?OSSAccessKeyId=LTAI4GKojFKZwGZNmTaBu1c2&Expires=1611671028&Signature=xmBdHdk34GtPcPDQP98i%2BHL9e2g%3D",
      "file_3": null,
      "state": 1,
      "add_time": "2021-01-26T18:14:20.326236",
      "now_time": "2021-01-26T19:11:23.456785",
      "child": 403
    },
    {
      "id": 690,
      "file_1": "https://course-wuhewenhua.oss-cn-beijing.aliyuncs.com/prod%2Fvideo%2Fanalysis%2F394%2F2021-01-26_16%3A07%3A53_1_mmexport1611648440611.mp4?OSSAccessKeyId=LTAI4GKojFKZwGZNmTaBu1c2&Expires=1611671028&Signature=Gy8GI1kpFvfy%2BobDFT7KrHT0RgM%3D",
      "file_2": "https://course-wuhewenhua.oss-cn-beijing.aliyuncs.com/prod%2Fvideo%2Fanalysis%2F394%2F2021-01-26_16%3A07%3A53_2_mmexport1611648448089.mp4?OSSAccessKeyId=LTAI4GKojFKZwGZNmTaBu1c2&Expires=1611671028&Signature=qe8EWu9w0YDoJBGh%2BRu%2BD%2BVAji4%3D",
      "file_3": null,
      "state": 1,
      "add_time": "2021-01-26T16:08:06.031891",
      "now_time": "2021-01-26T19:11:29.383815",
      "child": 394
    },
    {
      "id": 689,
      "file_1": "https://course-wuhewenhua.oss-cn-beijing.aliyuncs.com/prod%2Fvideo%2Fanalysis%2F400%2F2021-01-26_15%3A18%3A59_1_8035F591-95B2-4641-ADBB-99CCDC449426.MOV?OSSAccessKeyId=LTAI4GKojFKZwGZNmTaBu1c2&Expires=1611671028&Signature=lPXux4aOvT3j%2BPvwJIEti0tjoWs%3D",
      "file_2": "https://course-wuhewenhua.oss-cn-beijing.aliyuncs.com/prod%2Fvideo%2Fanalysis%2F400%2F2021-01-26_15%3A18%3A59_2_81483A2E-79FB-45E4-83F5-40C0DBFDF6A2.MOV?OSSAccessKeyId=LTAI4GKojFKZwGZNmTaBu1c2&Expires=1611671028&Signature=Mu9uk%2B5SmenjVqeUYQiaV6%2BsbhQ%3D",
      "file_3": null,
      "state": 1,
      "add_time": "2021-01-26T15:19:18.499506",
      "now_time": "2021-01-26T19:11:45.352817",
      "child": 400
    },
    {
      "id": 688,
      "file_1": "https://course-wuhewenhua.oss-cn-beijing.aliyuncs.com/prod%2Fvideo%2Fanalysis%2F390%2F2021-01-26_10%3A58%3A22_1_trim.9DF6FA33-E43E-496E-AA83-A11E0E573317.MOV?OSSAccessKeyId=LTAI4GKojFKZwGZNmTaBu1c2&Expires=1611671028&Signature=LywkKRHb4%2BeQb72hbea4i8veXRg%3D",
      "file_2": "https://course-wuhewenhua.oss-cn-beijing.aliyuncs.com/prod%2Fvideo%2Fanalysis%2F390%2F2021-01-26_10%3A58%3A22_2_trim.A5A0AD41-A786-401C-900B-2F72CD66FE03.MOV?OSSAccessKeyId=LTAI4GKojFKZwGZNmTaBu1c2&Expires=1611671028&Signature=wCMbPsUVh4y1%2FdBZWKj%2B51yBtcs%3D",
      "file_3": null,
      "state": 1,
      "add_time": "2021-01-26T10:58:23.464811",
      "now_time": "2021-01-26T19:11:47.409216",
      "child": 390
    },
    {
      "id": 687,
      "file_1": "https://course-wuhewenhua.oss-cn-beijing.aliyuncs.com/prod%2Fvideo%2Fanalysis%2F325%2F2021-01-25_09%3A50%3A38_1_VID20201205102115.mp4?OSSAccessKeyId=LTAI4GKojFKZwGZNmTaBu1c2&Expires=1611671028&Signature=XqNJMRXWBBQXaN%2F28%2BC3uqB1scQ%3D",
      "file_2": "https://course-wuhewenhua.oss-cn-beijing.aliyuncs.com/prod%2Fvideo%2Fanalysis%2F325%2F2021-01-25_09%3A50%3A38_2_VID20201205105519.mp4?OSSAccessKeyId=LTAI4GKojFKZwGZNmTaBu1c2&Expires=1611671028&Signature=4ibHHsIZ38vhS3DQhqNiFdmdMkA%3D",
      "file_3": null,
      "state": 1,
      "add_time": "2021-01-25T09:51:28.434773",
      "now_time": "2021-01-25T09:54:12.299315",
      "child": 325
    },
    {
      "id": 686,
      "file_1": "https://course-wuhewenhua.oss-cn-beijing.aliyuncs.com/prod%2Fvideo%2Fanalysis%2F394%2F2021-01-24_22%3A35%3A43_1_mmexport1611498922119.mp4?OSSAccessKeyId=LTAI4GKojFKZwGZNmTaBu1c2&Expires=1611671028&Signature=4yiFAH3%2FYMK3RO8GhOxmxHLvQdY%3D",
      "file_2": "https://course-wuhewenhua.oss-cn-beijing.aliyuncs.com/prod%2Fvideo%2Fanalysis%2F394%2F2021-01-24_22%3A35%3A43_2_mmexport1611498913605.mp4?OSSAccessKeyId=LTAI4GKojFKZwGZNmTaBu1c2&Expires=1611671028&Signature=uXH4P%2BwO5Fsd8uLa23WhZ1DLVMM%3D",
      "file_3": null,
      "state": 1,
      "add_time": "2021-01-24T22:35:46.250239",
      "now_time": "2021-01-24T22:35:59.174297",
      "child": 394
    },
    {
      "id": 685,
      "file_1": "https://course-wuhewenhua.oss-cn-beijing.aliyuncs.com/prod%2Fvideo%2Fanalysis%2F393%2F2021-01-24_20%3A42%3A51_1_VID_20210124_203558.3gp?OSSAccessKeyId=LTAI4GKojFKZwGZNmTaBu1c2&Expires=1611671028&Signature=Hkw%2BkemYE81PeslWn3NuiemfLG0%3D",
      "file_2": "https://course-wuhewenhua.oss-cn-beijing.aliyuncs.com/prod%2Fvideo%2Fanalysis%2F393%2F2021-01-24_20%3A42%3A52_2_VID_20210124_204244.3gp?OSSAccessKeyId=LTAI4GKojFKZwGZNmTaBu1c2&Expires=1611671028&Signature=z0ijlaX3HNI2BNQTobSd4LnCrx8%3D",
      "file_3": null,
      "state": 1,
      "add_time": "2021-01-24T20:44:01.853532",
      "now_time": "2021-01-24T20:45:01.408326",
      "child": 393
    },
    {
      "id": 684,
      "file_1": "https://course-wuhewenhua.oss-cn-beijing.aliyuncs.com/prod%2Fvideo%2Fanalysis%2F395%2F2021-01-23_19%3A35%3A49_1_63309435905__D91AC4C9-ED82-4E8B-A85B-D39D17B328ED.MOV?OSSAccessKeyId=LTAI4GKojFKZwGZNmTaBu1c2&Expires=1611671028&Signature=gSXVXmPznn1hrYFRFVyA%2Bz%2BZ2fY%3D",
      "file_2": "https://course-wuhewenhua.oss-cn-beijing.aliyuncs.com/prod%2Fvideo%2Fanalysis%2F395%2F2021-01-23_19%3A35%3A49_2_63309450254__A76374C1-BFD8-4353-80D7-7DC3A6D17DDE.MOV?OSSAccessKeyId=LTAI4GKojFKZwGZNmTaBu1c2&Expires=1611671028&Signature=W3%2B42FL3bZfUN%2BgvQnC%2Br%2FFP%2FLo%3D",
      "file_3": null,
      "state": 1,
      "add_time": "2021-01-23T19:36:21.022417",
      "now_time": "2021-01-23T19:36:45.862130",
      "child": 395
    }
  ]
}